%YAML 1.1
%TAG !u! tag:unity3d.com,2011:
--- !u!1 &2947022142318456530
GameObject:
  m_ObjectHideFlags: 0
  m_CorrespondingSourceObject: {fileID: 0}
  m_PrefabInstance: {fileID: 0}
  m_PrefabAsset: {fileID: 0}
  serializedVersion: 6
  m_Component:
  - component: {fileID: 2947022142318456531}
  - component: {fileID: 2947022142318456540}
  m_Layer: 0
  m_Name: bg (1)
  m_TagString: Untagged
  m_Icon: {fileID: 0}
  m_NavMeshLayer: 0
  m_StaticEditorFlags: 0
  m_IsActive: 1
--- !u!4 &2947022142318456531
Transform:
  m_ObjectHideFlags: 0
  m_CorrespondingSourceObject: {fileID: 0}
  m_PrefabInstance: {fileID: 0}
  m_PrefabAsset: {fileID: 0}
  m_GameObject: {fileID: 2947022142318456530}
  m_LocalRotation: {x: -0, y: -0, z: -0, w: 1}
  m_LocalPosition: {x: 0, y: 0, z: 0}
  m_LocalScale: {x: 1, y: 1, z: 1}
  m_Children: []
  m_Father: {fileID: 2947022142891215501}
  m_RootOrder: 0
  m_LocalEulerAnglesHint: {x: 0, y: 0, z: 0}
--- !u!212 &2947022142318456540
SpriteRenderer:
  m_ObjectHideFlags: 0
  m_CorrespondingSourceObject: {fileID: 0}
  m_PrefabInstance: {fileID: 0}
  m_PrefabAsset: {fileID: 0}
  m_GameObject: {fileID: 2947022142318456530}
  m_Enabled: 1
  m_CastShadows: 0
  m_ReceiveShadows: 0
  m_DynamicOccludee: 1
  m_MotionVectors: 1
  m_LightProbeUsage: 1
  m_ReflectionProbeUsage: 1
  m_RayTracingMode: 0
  m_RayTraceProcedural: 0
  m_RenderingLayerMask: 1
  m_RendererPriority: 0
  m_Materials:
  - {fileID: 2100000, guid: a97c105638bdf8b4a8650670310a4cd3, type: 2}
  m_StaticBatchInfo:
    firstSubMesh: 0
    subMeshCount: 0
  m_StaticBatchRoot: {fileID: 0}
  m_ProbeAnchor: {fileID: 0}
  m_LightProbeVolumeOverride: {fileID: 0}
  m_ScaleInLightmap: 1
  m_ReceiveGI: 1
  m_PreserveUVs: 0
  m_IgnoreNormalsForChartDetection: 0
  m_ImportantGI: 0
  m_StitchLightmapSeams: 1
  m_SelectedEditorRenderState: 0
  m_MinimumChartSize: 4
  m_AutoUVMaxDistance: 0.5
  m_AutoUVMaxAngle: 89
  m_LightmapParameters: {fileID: 0}
  m_SortingLayerID: 0
  m_SortingLayer: 0
  m_SortingOrder: 5
  m_Sprite: {fileID: 1618293649664528702, guid: 9bcaa1f81ae09d549a47a1c2e5b7a9b9, type: 3}
  m_Color: {r: 1, g: 1, b: 1, a: 1}
  m_FlipX: 0
  m_FlipY: 0
  m_DrawMode: 0
  m_Size: {x: 2.05, y: 3.52}
  m_AdaptiveModeThreshold: 0.5
  m_SpriteTileMode: 0
  m_WasSpriteAssigned: 1
  m_MaskInteraction: 0
  m_SpriteSortPoint: 0
--- !u!1 &2947022142891215491
GameObject:
  m_ObjectHideFlags: 0
  m_CorrespondingSourceObject: {fileID: 0}
  m_PrefabInstance: {fileID: 0}
  m_PrefabAsset: {fileID: 0}
  serializedVersion: 6
  m_Component:
  - component: {fileID: 2947022142891215501}
  m_Layer: 0
  m_Name: dreamCoke
  m_TagString: enemy
  m_Icon: {fileID: 0}
  m_NavMeshLayer: 0
  m_StaticEditorFlags: 0
  m_IsActive: 1
--- !u!4 &2947022142891215501
Transform:
  m_ObjectHideFlags: 0
  m_CorrespondingSourceObject: {fileID: 0}
  m_PrefabInstance: {fileID: 0}
  m_PrefabAsset: {fileID: 0}
  m_GameObject: {fileID: 2947022142891215491}
  m_LocalRotation: {x: -0, y: -0, z: -0, w: 1}
  m_LocalPosition: {x: -3.406, y: 0.816, z: 0}
  m_LocalScale: {x: 0.1, y: 0.1, z: 1}
  m_Children:
  - {fileID: 2947022142318456531}
  - {fileID: 2947022143249687244}
  m_Father: {fileID: 0}
  m_RootOrder: 0
  m_LocalEulerAnglesHint: {x: 0, y: 0, z: 0}
--- !u!1 &2947022143249687235
GameObject:
  m_ObjectHideFlags: 0
  m_CorrespondingSourceObject: {fileID: 0}
  m_PrefabInstance: {fileID: 0}
  m_PrefabAsset: {fileID: 0}
  serializedVersion: 6
  m_Component:
  - component: {fileID: 2947022143249687244}
  - component: {fileID: 2947022143249687245}
  - component: {fileID: 3266581845565373665}
  m_Layer: 0
  m_Name: dreamCoke
  m_TagString: enemy
  m_Icon: {fileID: 0}
  m_NavMeshLayer: 0
  m_StaticEditorFlags: 0
  m_IsActive: 1
--- !u!4 &2947022143249687244
Transform:
  m_ObjectHideFlags: 0
  m_CorrespondingSourceObject: {fileID: 0}
  m_PrefabInstance: {fileID: 0}
  m_PrefabAsset: {fileID: 0}
  m_GameObject: {fileID: 2947022143249687235}
  m_LocalRotation: {x: -0, y: -0, z: -0, w: 1}
  m_LocalPosition: {x: 0, y: 0, z: 0}
  m_LocalScale: {x: 1, y: 1, z: 1}
  m_Children: []
  m_Father: {fileID: 2947022142891215501}
  m_RootOrder: 1
  m_LocalEulerAnglesHint: {x: 0, y: 0, z: 0}
--- !u!212 &2947022143249687245
SpriteRenderer:
  m_ObjectHideFlags: 0
  m_CorrespondingSourceObject: {fileID: 0}
  m_PrefabInstance: {fileID: 0}
  m_PrefabAsset: {fileID: 0}
  m_GameObject: {fileID: 2947022143249687235}
  m_Enabled: 1
  m_CastShadows: 0
  m_ReceiveShadows: 0
  m_DynamicOccludee: 1
  m_MotionVectors: 1
  m_LightProbeUsage: 1
  m_ReflectionProbeUsage: 1
  m_RayTracingMode: 0
  m_RayTraceProcedural: 0
  m_RenderingLayerMask: 1
  m_RendererPriority: 0
  m_Materials:
  - {fileID: 2100000, guid: a97c105638bdf8b4a8650670310a4cd3, type: 2}
  m_StaticBatchInfo:
    firstSubMesh: 0
    subMeshCount: 0
  m_StaticBatchRoot: {fileID: 0}
  m_ProbeAnchor: {fileID: 0}
  m_LightProbeVolumeOverride: {fileID: 0}
  m_ScaleInLightmap: 1
  m_ReceiveGI: 1
  m_PreserveUVs: 0
  m_IgnoreNormalsForChartDetection: 0
  m_ImportantGI: 0
  m_StitchLightmapSeams: 1
  m_SelectedEditorRenderState: 0
  m_MinimumChartSize: 4
  m_AutoUVMaxDistance: 0.5
  m_AutoUVMaxAngle: 89
  m_LightmapParameters: {fileID: 0}
  m_SortingLayerID: 0
  m_SortingLayer: 0
  m_SortingOrder: 4
  m_Sprite: {fileID: 8049885976776599914, guid: 9bcaa1f81ae09d549a47a1c2e5b7a9b9, type: 3}
  m_Color: {r: 1, g: 1, b: 1, a: 1}
  m_FlipX: 0
  m_FlipY: 0
  m_DrawMode: 0
  m_Size: {x: 4.9, y: 4.86}
  m_AdaptiveModeThreshold: 0.5
  m_SpriteTileMode: 0
  m_WasSpriteAssigned: 1
  m_MaskInteraction: 0
  m_SpriteSortPoint: 0
--- !u!60 &3266581845565373665
PolygonCollider2D:
  m_ObjectHideFlags: 0
  m_CorrespondingSourceObject: {fileID: 0}
  m_PrefabInstance: {fileID: 0}
  m_PrefabAsset: {fileID: 0}
  m_GameObject: {fileID: 2947022143249687235}
  m_Enabled: 1
  m_Density: 1
  m_Material: {fileID: 0}
  m_IsTrigger: 0
  m_UsedByEffector: 0
  m_UsedByComposite: 0
  m_Offset: {x: 0, y: 0}
  m_SpriteTilingProperty:
    border: {x: 0, y: 0, z: 0, w: 0}
    pivot: {x: 0.5, y: 0.5}
    oldSize: {x: 4.9, y: 4.86}
    newSize: {x: 4.9, y: 4.86}
    adaptiveTilingThreshold: 0.5
    drawMode: 0
    adaptiveTiling: 0
  m_AutoTiling: 0
  m_Points:
    m_Paths:
    - - {x: -0.12, y: -2.09}
      - {x: -0.06, y: -1.92}
      - {x: 0.01, y: -1.9599999}
      - {x: 0.01, y: -2.04}
      - {x: 0.04, y: -2.1}
      - {x: 0.26, y: -2.27}
      - {x: 0.42999998, y: -2.33}
      - {x: 0.62, y: -2.3799999}
      - {x: 0.89, y: -2.37}
      - {x: 1.09, y: -2.3}
      - {x: 1.31, y: -2.19}
      - {x: 1.51, y: -1.93}
      - {x: 1.56, y: -1.8199999}
      - {x: 1.5899999, y: -1.62}
      - {x: 1.5999999, y: -1.51}
      - {x: 1.62, y: -1.27}
      - {x: 1.7099999, y: -1.27}
      - {x: 1.88, y: -1.2099999}
      - {x: 2, y: -1.15}
      - {x: 2.08, y: -1.1}
      - {x: 2.23, y: -0.97999996}
      - {x: 2.31, y: -0.85999995}
      - {x: 2.3899999, y: -0.71}
      - {x: 2.4099998, y: -0.65}
      - {x: 2.45, y: -0.51}
      - {x: 2.45, y: -0.14999999}
      - {x: 2.4299998, y: -0.06}
      - {x: 2.3999999, y: 0.03}
      - {x: 2.36, y: 0.12}
      - {x: 2.31, y: 0.19}
      - {x: 2.1299999, y: 0.35999998}
      - {x: 2.03, y: 0.42}
      - {x: 1.8, y: 0.52}
      - {x: 1.65, y: 0.53999996}
      - {x: 1.56, y: 0.57}
      - {x: 1.4699999, y: 0.57}
      - {x: 1.5699999, y: 0.69}
      - {x: 1.67, y: 0.9}
      - {x: 1.6899999, y: 0.98999995}
      - {x: 1.6999999, y: 1.1}
      - {x: 1.68, y: 1.31}
      - {x: 1.67, y: 1.4}
      - {x: 1.63, y: 1.52}
      - {x: 1.5, y: 1.76}
      - {x: 1.3399999, y: 1.93}
      - {x: 1.24, y: 1.93}
      - {x: 1.0699999, y: 2.03}
      - {x: 0.97999996, y: 2.07}
      - {x: 0.85999995, y: 2.09}
      - {x: 0.78, y: 2.1399999}
      - {x: 0.66999996, y: 2.1}
      - {x: 0.68, y: 2.05}
      - {x: 0.59999996, y: 2.04}
      - {x: 0.56, y: 2.1499999}
      - {x: 0.48, y: 2.24}
      - {x: 0.39, y: 2.35}
      - {x: 0.32, y: 2.35}
      - {x: 0.14999999, y: 2.4299998}
      - {x: -0.26, y: 2.4299998}
      - {x: -0.35999998, y: 2.4099998}
      - {x: -0.52, y: 2.3}
      - {x: -0.65, y: 2.1499999}
      - {x: -0.75, y: 2.1699998}
      - {x: -1.01, y: 2.08}
      - {x: -1.12, y: 2.01}
      - {x: -1.17, y: 1.9699999}
      - {x: -1.3399999, y: 1.9799999}
      - {x: -1.5699999, y: 1.86}
      - {x: -1.7199999, y: 1.6999999}
      - {x: -1.78, y: 1.5799999}
      - {x: -1.81, y: 1.49}
      - {x: -1.8, y: 1.35}
      - {x: -1.75, y: 1.25}
      - {x: -1.5899999, y: 1.1}
      - {x: -1.43, y: 1.02}
      - {x: -1.5999999, y: 0.95}
      - {x: -1.62, y: 1}
      - {x: -1.77, y: 1}
      - {x: -1.9, y: 0.89}
      - {x: -1.9599999, y: 0.90999997}
      - {x: -2.09, y: 0.78999996}
      - {x: -2.1599998, y: 0.66999996}
      - {x: -2.19, y: 0.52}
      - {x: -2.1699998, y: 0.39999998}
      - {x: -2.09, y: 0.28}
      - {x: -2.02, y: 0.19999999}
      - {x: -1.9499999, y: 0.14}
      - {x: -1.78, y: 0.07}
      - {x: -1.9799999, y: -0.04}
      - {x: -2.1399999, y: -0.17999999}
      - {x: -2.23, y: -0.26999998}
      - {x: -2.33, y: -0.32999998}
      - {x: -2.3799999, y: -0.41}
      - {x: -2.44, y: -0.64}
      - {x: -2.45, y: -0.65999997}
      - {x: -2.45, y: -1.11}
      - {x: -2.44, y: -1.18}
      - {x: -2.37, y: -1.31}
      - {x: -2.28, y: -1.4499999}
      - {x: -2.18, y: -1.54}
      - {x: -2.08, y: -1.5799999}
      - {x: -1.92, y: -1.61}
      - {x: -1.78, y: -1.5699999}
      - {x: -1.74, y: -1.65}
      - {x: -1.73, y: -1.78}
      - {x: -1.6999999, y: -1.9699999}
      - {x: -1.64, y: -2.1}
      - {x: -1.5899999, y: -2.1699998}
      - {x: -1.41, y: -2.33}
      - {x: -1.27, y: -2.3999999}
      - {x: -1.14, y: -2.4299998}
      - {x: -0.71999997, y: -2.4299998}
      - {x: -0.5, y: -2.37}
      - {x: -0.28, y: -2.24}
    - - {x: -1.62, y: -1.9399999}
      - {x: -1.61, y: -1.99}
      - {x: -1.5899999, y: -2}
      - {x: -1.5899999, y: -1.9799999}
