%YAML 1.1
%TAG !u! tag:unity3d.com,2011:
--- !u!1 &5880966385034116669
GameObject:
  m_ObjectHideFlags: 0
  m_CorrespondingSourceObject: {fileID: 0}
  m_PrefabInstance: {fileID: 0}
  m_PrefabAsset: {fileID: 0}
  serializedVersion: 6
  m_Component:
  - component: {fileID: 2304317174318782026}
  - component: {fileID: 6567245437069483745}
  - component: {fileID: -3114705609131222097}
  - component: {fileID: 7455203522403246534}
  m_Layer: 0
  m_Name: pillow
  m_TagString: Untagged
  m_Icon: {fileID: 0}
  m_NavMeshLayer: 0
  m_StaticEditorFlags: 0
  m_IsActive: 1
--- !u!4 &2304317174318782026
Transform:
  m_ObjectHideFlags: 0
  m_CorrespondingSourceObject: {fileID: 0}
  m_PrefabInstance: {fileID: 0}
  m_PrefabAsset: {fileID: 0}
  m_GameObject: {fileID: 5880966385034116669}
  m_LocalRotation: {x: -0, y: -0, z: -0, w: 1}
  m_LocalPosition: {x: -2.773, y: 1.267, z: 0}
  m_LocalScale: {x: 0.1, y: 0.1, z: 1}
  m_Children: []
  m_Father: {fileID: 0}
  m_RootOrder: 0
  m_LocalEulerAnglesHint: {x: 0, y: 0, z: 0}
--- !u!212 &6567245437069483745
SpriteRenderer:
  m_ObjectHideFlags: 0
  m_CorrespondingSourceObject: {fileID: 0}
  m_PrefabInstance: {fileID: 0}
  m_PrefabAsset: {fileID: 0}
  m_GameObject: {fileID: 5880966385034116669}
  m_Enabled: 1
  m_CastShadows: 0
  m_ReceiveShadows: 0
  m_DynamicOccludee: 1
  m_MotionVectors: 1
  m_LightProbeUsage: 1
  m_ReflectionProbeUsage: 1
  m_RayTracingMode: 0
  m_RayTraceProcedural: 0
  m_RenderingLayerMask: 1
  m_RendererPriority: 0
  m_Materials:
  - {fileID: 2100000, guid: a97c105638bdf8b4a8650670310a4cd3, type: 2}
  m_StaticBatchInfo:
    firstSubMesh: 0
    subMeshCount: 0
  m_StaticBatchRoot: {fileID: 0}
  m_ProbeAnchor: {fileID: 0}
  m_LightProbeVolumeOverride: {fileID: 0}
  m_ScaleInLightmap: 1
  m_ReceiveGI: 1
  m_PreserveUVs: 0
  m_IgnoreNormalsForChartDetection: 0
  m_ImportantGI: 0
  m_StitchLightmapSeams: 1
  m_SelectedEditorRenderState: 0
  m_MinimumChartSize: 4
  m_AutoUVMaxDistance: 0.5
  m_AutoUVMaxAngle: 89
  m_LightmapParameters: {fileID: 0}
  m_SortingLayerID: 0
  m_SortingLayer: 0
  m_SortingOrder: 5
  m_Sprite: {fileID: -3885610455112514396, guid: 9bcaa1f81ae09d549a47a1c2e5b7a9b9, type: 3}
  m_Color: {r: 1, g: 1, b: 1, a: 1}
  m_FlipX: 0
  m_FlipY: 0
  m_DrawMode: 0
  m_Size: {x: 5.71, y: 3.46}
  m_AdaptiveModeThreshold: 0.5
  m_SpriteTileMode: 0
  m_WasSpriteAssigned: 1
  m_MaskInteraction: 0
  m_SpriteSortPoint: 0
--- !u!114 &-3114705609131222097
MonoBehaviour:
  m_ObjectHideFlags: 0
  m_CorrespondingSourceObject: {fileID: 0}
  m_PrefabInstance: {fileID: 0}
  m_PrefabAsset: {fileID: 0}
  m_GameObject: {fileID: 5880966385034116669}
  m_Enabled: 1
  m_EditorHideFlags: 0
  m_Script: {fileID: 11500000, guid: 2d5323ef3f2ef06478ddad96589f97b3, type: 3}
  m_Name: 
  m_EditorClassIdentifier: 
  isEquiped: 0
  isEnabled: 0
  speed: 1
  radius: 0.5
--- !u!60 &7455203522403246534
PolygonCollider2D:
  m_ObjectHideFlags: 0
  m_CorrespondingSourceObject: {fileID: 0}
  m_PrefabInstance: {fileID: 0}
  m_PrefabAsset: {fileID: 0}
  m_GameObject: {fileID: 5880966385034116669}
  m_Enabled: 1
  m_Density: 1
  m_Material: {fileID: 0}
  m_IsTrigger: 0
  m_UsedByEffector: 0
  m_UsedByComposite: 0
  m_Offset: {x: 0, y: 0}
  m_SpriteTilingProperty:
    border: {x: 0, y: 0, z: 0, w: 0}
    pivot: {x: 0.5, y: 0.5}
    oldSize: {x: 2.14, y: 1.3}
    newSize: {x: 5.71, y: 3.46}
    adaptiveTilingThreshold: 0.5
    drawMode: 0
    adaptiveTiling: 0
  m_AutoTiling: 0
  m_Points:
    m_Paths:
    - - {x: 0.96999997, y: -0.11}
      - {x: 1.04, y: 0.06}
      - {x: 1.0699999, y: 0.14999999}
      - {x: 1.0699999, y: 0.26999998}
      - {x: 1.06, y: 0.29999998}
      - {x: 1, y: 0.37}
      - {x: 0.89, y: 0.42999998}
      - {x: 0.78999996, y: 0.47}
      - {x: 0.7, y: 0.48999998}
      - {x: 0.58, y: 0.53}
      - {x: 0.39999998, y: 0.61}
      - {x: 0.29, y: 0.63}
      - {x: 0.02, y: 0.62}
      - {x: -0.17999999, y: 0.61}
      - {x: -0.26, y: 0.65}
      - {x: -0.53999996, y: 0.65}
      - {x: -0.58, y: 0.63}
      - {x: -0.71999997, y: 0.48}
      - {x: -0.79999995, y: 0.37}
      - {x: -0.89, y: 0.21}
      - {x: -0.96999997, y: 0.11}
      - {x: -1.0699999, y: -0.14999999}
      - {x: -1.0699999, y: -0.32}
      - {x: -1.05, y: -0.37}
      - {x: -0.98999995, y: -0.45999998}
      - {x: -0.71, y: -0.55}
      - {x: -0.5, y: -0.56}
      - {x: -0.14, y: -0.53}
      - {x: -0.11, y: -0.55}
      - {x: 0.14999999, y: -0.62}
      - {x: 0.31, y: -0.63}
      - {x: 0.32999998, y: -0.64}
      - {x: 0.63, y: -0.64}
      - {x: 0.66999996, y: -0.59999996}
      - {x: 0.81, y: -0.42999998}
      - {x: 0.90999997, y: -0.28}
